Patientid|IssuerOfPatientId|Type|Code|Content
839783|VMACS|TX|SPECIES|EQ
839783|VMACS|TX|BREED|QUARTER HORSE
839784|VMACS|TX|SPECIES|EQ
839784|VMACS|TX|BREED|AMERICAN MINIATURE
839215|VMACS|TX|SPECIES|CAP
839215|VMACS|TX|BREED|NIGERIAN DWARF GOAT
839761|VMACS|TX|SPECIES|EQ
839761|VMACS|TX|BREED|QUARTER HORSE]
839643|VMACS|TX|SPECIES|CAP
839643|VMACS|TX|BREED|NIGERIAN DWARF GOAT
839071|VMACS|TX|SPECIES|EQ
839071|VMACS|TX|BREED|STANDARDBRED
839894|VMACS|TX|SPECIES|EQ
839894|VMACS|TX|BREED|QUARTER HORSE]
839895|VMACS|TX|SPECIES|EQ
839895|VMACS|TX|BREED|QUARTER HORSE
839787|VMACS|TX|SPECIES|EQ
839787|VMACS|TX|BREED|ARABIAN
689588|VMACS|TX|SPECIES|CAP
689588|VMACS|TX|BREED|AFRICAN PYGMY
698126|VMACS|TX|SPECIES|EQ
698126|VMACS|TX|BREED|ARABIAN
839919|VMACS|TX|SPECIES|EQ
839919|VMACS|TX|BREED|MIX
839887|VMACS|TX|SPECIES|EQ
839887|VMACS|TX|BREED|APPALOOSA
839920|VMACS|TX|SPECIES|EQ
839920|VMACS|TX|BREED|QUARTER HORSE]
691157|VMACS|TX|SPECIES|EQ
691157|VMACS|TX|BREED|ARABIAN
839792|VMACS|TX|SPECIES|EQ
839792|VMACS|TX|BREED|AMERICAN PAINT HORSE
839431|VMACS|TX|SPECIES|CAP
839431|VMACS|TX|BREED|AFRICAN PYGMY
839813|VMACS|TX|SPECIES|EQ
839813|VMACS|TX|BREED|QUARTER HORSE]
696025|VMACS|TX|SPECIES|EQ
696025|VMACS|TX|BREED|QUARTER HORSE]
693345|VMACS|TX|SPECIES|EQ
693345|VMACS|TX|BREED|DUTCH WARMBLOOD
839778|VMACS|TX|SPECIES|EQ
839778|VMACS|TX|BREED|ARABIAN
699885|VMACS|TX|SPECIES|EQ
699885|VMACS|TX|BREED|IRISH SPORT HORSE
839905|VMACS|TX|SPECIES|EQ
839905|VMACS|TX|BREED|LUSITANO
839815|VMACS|TX|SPECIES|EQ
839815|VMACS|TX|BREED|LUSITANO
699503|VMACS|TX|SPECIES|EQ
699503|VMACS|TX|BREED|AMERICAN PAINT HORSE
839907|VMACS|TX|SPECIES|EQ
839907|VMACS|TX|BREED|PASO FINO
839891|VMACS|TX|SPECIES|EQ
839891|VMACS|TX|BREED|WARMBLOOD
839789|VMACS|TX|SPECIES|CAP
839789|VMACS|TX|BREED|MIX
839703|VMACS|TX|SPECIES|BOV
839703|VMACS|TX|BREED|BEEFMASTER
839913|VMACS|TX|SPECIES|EQ
839913|VMACS|TX|BREED|MIX
670058|VMACS|TX|SPECIES|EQ
670058|VMACS|TX|BREED|THOROUGHBRED
839760|VMACS|TX|SPECIES|CAP
839760|VMACS|TX|BREED|ANGORA
670761|VMACS|TX|SPECIES|EQ
670761|VMACS|TX|BREED|QUARTER HORSE
839845|VMACS|TX|SPECIES|EQ
839845|VMACS|TX|BREED|CONNEMARA PONY
839654|VMACS|TX|SPECIES|EQ
839654|VMACS|TX|BREED|WARMBLOOD
839089|VMACS|TX|SPECIES|CAP
839089|VMACS|TX|BREED|NIGERIAN DWARF GOAT
839843|VMACS|TX|SPECIES|CAP
839843|VMACS|TX|BREED|SAN CLEMENTE GOAT
839376|VMACS|TX|SPECIES|EQ
839376|VMACS|TX|BREED|MIX
839916|VMACS|TX|SPECIES|EQ
839916|VMACS|TX|BREED|WARMBLOOD
686169|VMACS|TX|SPECIES|EQ
686169|VMACS|TX|BREED|MIX
839926|VMACS|TX|SPECIES|CAP
839926|VMACS|TX|BREED|PYGMY
839647|VMACS|TX|SPECIES|EQ
839647|VMACS|TX|BREED|WARMBLOOD
949858|VMACS|TX|SPECIES|XHF
949858|VMACS|TX|BREED|ALPACA
699204|VMACS|TX|SPECIES|EQ
699204|VMACS|TX|BREED|ANDALUSIAN
696765|VMACS|TX|SPECIES|EQ
696765|VMACS|TX|BREED|QUARTER HORSE]
839601|VMACS|TX|SPECIES|EQ
839601|VMACS|TX|BREED|QUARTER HORSE]
698056|VMACS|TX|SPECIES|EQ
698056|VMACS|TX|BREED|ARABIAN
839934|VMACS|TX|SPECIES|EQ
839934|VMACS|TX|BREED|QUARTER HORSE]
839766|VMACS|TX|SPECIES|EQ
839766|VMACS|TX|BREED|QUARTER HORSE]
689849|VMACS|TX|SPECIES|EQ
689849|VMACS|TX|BREED|IRISH SPORT HORSE
839839|VMACS|TX|SPECIES|BOV
839839|VMACS|TX|BREED|ANGUS
692682|VMACS|TX|SPECIES|EQ
692682|VMACS|TX|BREED|QUARTER HORSE
839940|VMACS|TX|SPECIES|EQ
839940|VMACS|TX|BREED|THOROUGHBRED
839945|VMACS|TX|SPECIES|POR
839945|VMACS|TX|BREED|POT BELLY
696692|VMACS|TX|SPECIES|EQ
696692|VMACS|TX|BREED|THOROUGHBRED
663923|VMACS|TX|SPECIES|EQ
663923|VMACS|TX|BREED|MIX
839846|VMACS|TX|SPECIES|EQ
839846|VMACS|TX|BREED|QUARTER HORSE
839941|VMACS|TX|SPECIES|EQ
839941|VMACS|TX|BREED|ARABIAN
839498|VMACS|TX|SPECIES|EQ
839498|VMACS|TX|BREED|OLDENBURG
839848|VMACS|TX|SPECIES|EQ
839848|VMACS|TX|BREED|QUARTER HORSE
839942|VMACS|TX|SPECIES|CAP
839942|VMACS|TX|BREED|LAMANCHA
839953|VMACS|TX|SPECIES|EQ
839953|VMACS|TX|BREED|ARABIAN
839788|VMACS|TX|SPECIES|EQ
839788|VMACS|TX|BREED|QUARTER HORSE
839849|VMACS|TX|SPECIES|EQ
839849|VMACS|TX|BREED|QUARTER HORSE
698678|VMACS|TX|SPECIES|CAP
698678|VMACS|TX|BREED|NUBIAN
675738|VMACS|TX|SPECIES|EQ
675738|VMACS|TX|BREED|MIX
698075|VMACS|TX|SPECIES|EQ
698075|VMACS|TX|BREED|THOROUGHBRED
840181|VMACS|TX|SPECIES|EQ
840181|VMACS|TX|BREED|WARMBLOOD
840180|VMACS|TX|SPECIES|EQ
840180|VMACS|TX|BREED|WARMBLOOD
840177|VMACS|TX|SPECIES|EQ
840177|VMACS|TX|BREED|QUARTER HORSE]
839948|VMACS|TX|SPECIES|EQ
839948|VMACS|TX|BREED|DUTCH WARMBLOOD
681388|VMACS|TX|SPECIES|EQ
681388|VMACS|TX|BREED|MISSOURI FOX TROTTER
839967|VMACS|TX|SPECIES|EQ
839967|VMACS|TX|BREED|PONY
839996|VMACS|TX|SPECIES|POR
839996|VMACS|TX|BREED|VIETNAMESE POT BELLY
839074|VMACS|TX|SPECIES|POR
839074|VMACS|TX|BREED|POT BELLY
838432|VMACS|TX|SPECIES|EQ
838432|VMACS|TX|BREED|QUARTER HORSE]
839955|VMACS|TX|SPECIES|OV
839955|VMACS|TX|BREED|MIX
839954|VMACS|TX|SPECIES|EQ
839954|VMACS|TX|BREED|DONKEY
713534|VMACS|TX|SPECIES|K9
713534|VMACS|TX|BREED|BULLDOG, FRENCH
713639|VMACS|TX|SPECIES|K9
713639|VMACS|TX|BREED|GERMAN SHEPHERD DOG
713514|VMACS|TX|SPECIES|K9
713514|VMACS|TX|BREED|DACHSHUND
713542|VMACS|TX|SPECIES|K9
713542|VMACS|TX|BREED|DACHSHUND, MINIATURE
713509|VMACS|TX|SPECIES|K9
713509|VMACS|TX|BREED|BULLDOG, FRENCH
713548|VMACS|TX|SPECIES|FE
713548|VMACS|TX|BREED|DOMESTIC SHORTHAIR
713580|VMACS|TX|SPECIES|K9
713580|VMACS|TX|BREED|BULLDOG, FRENCH
713595|VMACS|TX|SPECIES|K9
713595|VMACS|TX|BREED|CANE CORSO
713650|VMACS|TX|SPECIES|K9
713650|VMACS|TX|BREED|MIX
713569|VMACS|TX|SPECIES|K9
713569|VMACS|TX|BREED|BULLDOG, FRENCH
713605|VMACS|TX|SPECIES|K9
713605|VMACS|TX|BREED|DACHSHUND
713587|VMACS|TX|SPECIES|K9
713587|VMACS|TX|BREED|SHIH TZU
713604|VMACS|TX|SPECIES|K9
713604|VMACS|TX|BREED|LABRADOR RETRIEVER
713729|VMACS|TX|SPECIES|K9
713729|VMACS|TX|BREED|LABRADOR RETRIEVER
710266|VMACS|TX|SPECIES|K9
710266|VMACS|TX|BREED|CHIHUAHUA
419599|VMACS|TX|SPECIES|K9
419599|VMACS|TX|BREED|POMERANIAN
713521|VMACS|TX|SPECIES|FE
713521|VMACS|TX|BREED|MIX
712814|VMACS|TX|SPECIES|K9
712814|VMACS|TX|BREED|MIX
705794|VMACS|TX|SPECIES|K9
705794|VMACS|TX|BREED|SHIBA INU
710265|VMACS|TX|SPECIES|K9
710265|VMACS|TX|BREED|MIX
713745|VMACS|TX|SPECIES|K9
713745|VMACS|TX|BREED|BULLDOG, FRENCH
713734|VMACS|TX|SPECIES|K9
713734|VMACS|TX|BREED|MIX
713782|VMACS|TX|SPECIES|K9
713782|VMACS|TX|BREED|DACHSHUND
713778|VMACS|TX|SPECIES|K9
713778|VMACS|TX|BREED|MIX
713752|VMACS|TX|SPECIES|K9
713752|VMACS|TX|BREED|BULLDOG, FRENCH
713779|VMACS|TX|SPECIES|K9
713779|VMACS|TX|BREED|CHIHUAHUA
713933|VMACS|TX|SPECIES|K9
713933|VMACS|TX|BREED|ROTTWEILER
713763|VMACS|TX|SPECIES|K9
713763|VMACS|TX|BREED|CHIHUAHUA
713799|VMACS|TX|SPECIES|K9
713799|VMACS|TX|BREED|MIX
713797|VMACS|TX|SPECIES|K9
713797|VMACS|TX|BREED|MIX
459052|VMACS|TX|SPECIES|K9
459052|VMACS|TX|BREED|MIX
713841|VMACS|TX|SPECIES|K9
713841|VMACS|TX|BREED|COCKER SPANIEL,ENGLISH
446512|VMACS|TX|SPECIES|K9
446512|VMACS|TX|BREED|BULLDOG, FRENCH
713962|VMACS|TX|SPECIES|K9
713962|VMACS|TX|BREED|PIT BULL TERRIER
712147|VMACS|TX|SPECIES|K9
712147|VMACS|TX|BREED|CHIHUAHUA
713864|VMACS|TX|SPECIES|FE
713864|VMACS|TX|BREED|DOMESTIC SHORTHAIR
713860|VMACS|TX|SPECIES|K9
713860|VMACS|TX|BREED|POODLE, MINIATURE
712998|VMACS|TX|SPECIES|K9
712998|VMACS|TX|BREED|SIBERIAN HUSKY
713844|VMACS|TX|SPECIES|K9
713844|VMACS|TX|BREED|COCKER SPANIEL, AMERICAN
713917|VMACS|TX|SPECIES|K9
713917|VMACS|TX|BREED|AUSTRALIAN SHEPHERD
713827|VMACS|TX|SPECIES|K9
713827|VMACS|TX|BREED|AUSTRALIAN CATTLE DOG
714021|VMACS|TX|SPECIES|K9
714021|VMACS|TX|BREED|DACHSHUND
714035|VMACS|TX|SPECIES|K9
714035|VMACS|TX|BREED|WELSH CORGI, PEMBROKE
713512|VMACS|TX|SPECIES|K9
713512|VMACS|TX|BREED|MIX
713357|VMACS|TX|SPECIES|FE
713357|VMACS|TX|BREED|PERSIAN
713537|VMACS|TX|SPECIES|K9
713537|VMACS|TX|BREED|SPRINGER SPANIEL, ENGLISH
713553|VMACS|TX|SPECIES|K9
713553|VMACS|TX|BREED|RHODESIAN RIDGEBACK
713535|VMACS|TX|SPECIES|K9
713535|VMACS|TX|BREED|AUSTRALIAN SHEPHERD
713596|VMACS|TX|SPECIES|K9
713596|VMACS|TX|BREED|PIT BULL TERRIER
497594|VMACS|TX|SPECIES|K9
497594|VMACS|TX|BREED|LABRADOR RETRIEVER
713546|VMACS|TX|SPECIES|K9
713546|VMACS|TX|BREED|BELGIAN MALINOIS
713593|VMACS|TX|SPECIES|FE
713593|VMACS|TX|BREED|DOMESTIC SHORTHAIR
713505|VMACS|TX|SPECIES|FE
713505|VMACS|TX|BREED|DOMESTIC SHORTHAIR
712671|VMACS|TX|SPECIES|K9
712671|VMACS|TX|BREED|WHIPPET
950163|VMACS|TX|SPECIES|REP
950163|VMACS|TX|BREED|BEARDED DRAGON
462320|VMACS|TX|SPECIES|K9
462320|VMACS|TX|BREED|CAVALIER KING CHARLES SPANIEL
414393|VMACS|TX|SPECIES|K9
414393|VMACS|TX|BREED|POMERANIAN
710458|VMACS|TX|SPECIES|K9
710458|VMACS|TX|BREED|MIX
946597|VMACS|TX|SPECIES|AV
946597|VMACS|TX|BREED|LESSER SULFUR COCKATOO
713631|VMACS|TX|SPECIES|K9
713631|VMACS|TX|BREED|AUSTRALIAN CATTLE DOG
712380|VMACS|TX|SPECIES|K9
712380|VMACS|TX|BREED|GOLDEN RETRIEVER
373915|VMACS|TX|SPECIES|K9
373915|VMACS|TX|BREED|POODLE, TOY
712559|VMACS|TX|SPECIES|K9
712559|VMACS|TX|BREED|CATAHOULA HOG DOG
707257|VMACS|TX|SPECIES|K9
707257|VMACS|TX|BREED|POMERANIAN
431790|VMACS|TX|SPECIES|K9
431790|VMACS|TX|BREED|YORKSHIRE TERRIER
713437|VMACS|TX|SPECIES|FE
713437|VMACS|TX|BREED|DOMESTIC LONGHAIR
419643|VMACS|TX|SPECIES|K9
419643|VMACS|TX|BREED|MINIATURE PINSCHER
713538|VMACS|TX|SPECIES|K9
713538|VMACS|TX|BREED|GERMAN SHEPHERD DOG
454711|VMACS|TX|SPECIES|K9
454711|VMACS|TX|BREED|AKITA
711768|VMACS|TX|SPECIES|K9
711768|VMACS|TX|BREED|MIX
713554|VMACS|TX|SPECIES|K9
713554|VMACS|TX|BREED|MIX
713584|VMACS|TX|SPECIES|K9
713584|VMACS|TX|BREED|BOLOGNESE
496434|VMACS|TX|SPECIES|K9
496434|VMACS|TX|BREED|MIX
702342|VMACS|TX|SPECIES|K9
702342|VMACS|TX|BREED|MIX
713599|VMACS|TX|SPECIES|K9
713599|VMACS|TX|BREED|POODLE, MINIATURE
490875|VMACS|TX|SPECIES|K9
490875|VMACS|TX|BREED|LABRADOR RETRIEVER
701480|VMACS|TX|SPECIES|K9
701480|VMACS|TX|BREED|MIX
713611|VMACS|TX|SPECIES|K9
713611|VMACS|TX|BREED|GOLDEN RETRIEVER
712945|VMACS|TX|SPECIES|K9
712945|VMACS|TX|BREED|MIX
713616|VMACS|TX|SPECIES|K9
713616|VMACS|TX|BREED|GOLDEN RETRIEVER
700986|VMACS|TX|SPECIES|K9
700986|VMACS|TX|BREED|LABRADOR RETRIEVER
713615|VMACS|TX|SPECIES|FE
713615|VMACS|TX|BREED|DOMESTIC SHORTHAIR
402301|VMACS|TX|SPECIES|K9
402301|VMACS|TX|BREED|WEIMARANER
711813|VMACS|TX|SPECIES|FE
711813|VMACS|TX|BREED|SIAMESE
458886|VMACS|TX|SPECIES|K9
458886|VMACS|TX|BREED|MIX
713638|VMACS|TX|SPECIES|K9
713638|VMACS|TX|BREED|DOGUE DE BORDEAUX
418030|VMACS|TX|SPECIES|K9
418030|VMACS|TX|BREED|MIX
717563|VMACS|TX|SPECIES|K9
717563|VMACS|TX|BREED|NOVA SCOTIA DUCK TOLLING RET
707113|VMACS|TX|SPECIES|FE
707113|VMACS|TX|BREED|DOMESTIC SHORTHAIR
410074|VMACS|TX|SPECIES|FE
410074|VMACS|TX|BREED|AMERICAN SHORTHAIR
703519|VMACS|TX|SPECIES|K9
703519|VMACS|TX|BREED|LABRADOR RETRIEVER
713609|VMACS|TX|SPECIES|K9
713609|VMACS|TX|BREED|MIX
713428|VMACS|TX|SPECIES|K9
713428|VMACS|TX|BREED|MIX
713645|VMACS|TX|SPECIES|K9
713645|VMACS|TX|BREED|GOLDEN RETRIEVER
708274|VMACS|TX|SPECIES|FE
708274|VMACS|TX|BREED|SIAMESE
713643|VMACS|TX|SPECIES|FE
713643|VMACS|TX|BREED|DOMESTIC SHORTHAIR
713657|VMACS|TX|SPECIES|K9
713657|VMACS|TX|BREED|BEAGLE
704016|VMACS|TX|SPECIES|K9
704016|VMACS|TX|BREED|MIX
713705|VMACS|TX|SPECIES|K9
713705|VMACS|TX|BREED|WEIMARANER
713653|VMACS|TX|SPECIES|K9
713653|VMACS|TX|BREED|BLOODHOUND
459457|VMACS|TX|SPECIES|K9
459457|VMACS|TX|BREED|TIBETAN TERRIER
469333|VMACS|TX|SPECIES|K9
469333|VMACS|TX|BREED|CAVALIER KING CHARLES SPANIEL
707439|VMACS|TX|SPECIES|K9
707439|VMACS|TX|BREED|MIX
423756|VMACS|TX|SPECIES|K9
423756|VMACS|TX|BREED|MIX
466854|VMACS|TX|SPECIES|FE
466854|VMACS|TX|BREED|DOMESTIC SHORTHAIR
710457|VMACS|TX|SPECIES|K9
710457|VMACS|TX|BREED|MIX
713669|VMACS|TX|SPECIES|FE
713669|VMACS|TX|BREED|DOMESTIC SHORTHAIR
473251|VMACS|TX|SPECIES|K9
473251|VMACS|TX|BREED|MIX
476956|VMACS|TX|SPECIES|K9
476956|VMACS|TX|BREED|MALTESE
710164|VMACS|TX|SPECIES|K9
710164|VMACS|TX|BREED|POODLE, STANDARD
713634|VMACS|TX|SPECIES|K9
713634|VMACS|TX|BREED|MIX
713719|VMACS|TX|SPECIES|K9
713719|VMACS|TX|BREED|AUSTRALIAN CATTLE DOG
713716|VMACS|TX|SPECIES|K9
713716|VMACS|TX|BREED|LABRADOR RETRIEVER
460201|VMACS|TX|SPECIES|K9
460201|VMACS|TX|BREED|HAVANESE
480613|VMACS|TX|SPECIES|K9
480613|VMACS|TX|BREED|MIX
705710|VMACS|TX|SPECIES|K9
705710|VMACS|TX|BREED|TIBETAN TERRIER
713748|VMACS|TX|SPECIES|K9
713748|VMACS|TX|BREED|WELSH TERRIER
488570|VMACS|TX|SPECIES|K9
488570|VMACS|TX|BREED|WELSH CORGI, PEMBROKE
713562|VMACS|TX|SPECIES|FE
713562|VMACS|TX|BREED|DOMESTIC SHORTHAIR
470659|VMACS|TX|SPECIES|K9
470659|VMACS|TX|BREED|POODLE, STANDARD
713733|VMACS|TX|SPECIES|FE
713733|VMACS|TX|BREED|DOMESTIC SHORTHAIR
713709|VMACS|TX|SPECIES|K9
713709|VMACS|TX|BREED|BULLDOG, FRENCH
452004|VMACS|TX|SPECIES|K9
452004|VMACS|TX|BREED|CHIHUAHUA
447756|VMACS|TX|SPECIES|K9
447756|VMACS|TX|BREED|MALTESE
713362|VMACS|TX|SPECIES|K9
713362|VMACS|TX|BREED|SHIH TZU
713731|VMACS|TX|SPECIES|K9
713731|VMACS|TX|BREED|BULLDOG, ENGLISH
713662|VMACS|TX|SPECIES|K9
713662|VMACS|TX|BREED|IRISH WOLFHOUND
717463|VMACS|TX|SPECIES|K9
717463|VMACS|TX|BREED|BULLDOG, FRENCH
713756|VMACS|TX|SPECIES|K9
713756|VMACS|TX|BREED|MIX
713785|VMACS|TX|SPECIES|K9
713785|VMACS|TX|BREED|BULLDOG, FRENCH
716889|VMACS|TX|SPECIES|K9
716889|VMACS|TX|BREED|MIX
707462|VMACS|TX|SPECIES|K9
707462|VMACS|TX|BREED|LABRADOR RETRIEVER
701096|VMACS|TX|SPECIES|K9
701096|VMACS|TX|BREED|BICHON FRISE
708177|VMACS|TX|SPECIES|K9
708177|VMACS|TX|BREED|COCKER SPANIEL,ENGLISH
428590|VMACS|TX|SPECIES|K9
428590|VMACS|TX|BREED|MIX
713790|VMACS|TX|SPECIES|K9
713790|VMACS|TX|BREED|LABRADOR RETRIEVER
432290|VMACS|TX|SPECIES|K9
432290|VMACS|TX|BREED|CHIHUAHUA
713789|VMACS|TX|SPECIES|K9
713789|VMACS|TX|BREED|ITALIAN GREYHOUND
712404|VMACS|TX|SPECIES|K9
712404|VMACS|TX|BREED|MIX
713935|VMACS|TX|SPECIES|K9
713935|VMACS|TX|BREED|CHIHUAHUA
702272|VMACS|TX|SPECIES|FE
702272|VMACS|TX|BREED|DOMESTIC SHORTHAIR
713936|VMACS|TX|SPECIES|FE
713936|VMACS|TX|BREED|DOMESTIC SHORTHAIR
713938|VMACS|TX|SPECIES|FE
713938|VMACS|TX|BREED|DOMESTIC SHORTHAIR
701423|VMACS|TX|SPECIES|K9
701423|VMACS|TX|BREED|MIX
713619|VMACS|TX|SPECIES|K9
713619|VMACS|TX|BREED|GERMAN SHEPHERD DOG
430854|VMACS|TX|SPECIES|K9
430854|VMACS|TX|BREED|MIX
713811|VMACS|TX|SPECIES|K9
713811|VMACS|TX|BREED|MIX
713805|VMACS|TX|SPECIES|FE
713805|VMACS|TX|BREED|DOMESTIC SHORTHAIR
488680|VMACS|TX|SPECIES|K9
488680|VMACS|TX|BREED|BOXER
713369|VMACS|TX|SPECIES|K9
713369|VMACS|TX|BREED|PIT BULL TERRIER
486312|VMACS|TX|SPECIES|K9
486312|VMACS|TX|BREED|GREAT DANE
713928|VMACS|TX|SPECIES|K9
713928|VMACS|TX|BREED|YORKSHIRE TERRIER
713830|VMACS|TX|SPECIES|K9
713830|VMACS|TX|BREED|MIX
710440|VMACS|TX|SPECIES|K9
710440|VMACS|TX|BREED|MIX
499982|VMACS|TX|SPECIES|K9
499982|VMACS|TX|BREED|DACHSHUND, MINIATURE
493302|VMACS|TX|SPECIES|K9
493302|VMACS|TX|BREED|LABRADOR RETRIEVER
713633|VMACS|TX|SPECIES|K9
713633|VMACS|TX|BREED|LABRADOR RETRIEVER
713932|VMACS|TX|SPECIES|K9
713932|VMACS|TX|BREED|BEAGLE
710454|VMACS|TX|SPECIES|K9
710454|VMACS|TX|BREED|LABRADOR RETRIEVER
712106|VMACS|TX|SPECIES|FE
712106|VMACS|TX|BREED|DOMESTIC LONGHAIR
370121|VMACS|TX|SPECIES|K9
370121|VMACS|TX|BREED|HAVANESE
712396|VMACS|TX|SPECIES|K9
712396|VMACS|TX|BREED|DACHSHUND
713365|VMACS|TX|SPECIES|K9
713365|VMACS|TX|BREED|GOLDEN RETRIEVER
713760|VMACS|TX|SPECIES|FE
713760|VMACS|TX|BREED|SIAMESE
408106|VMACS|TX|SPECIES|K9
408106|VMACS|TX|BREED|MIX
713821|VMACS|TX|SPECIES|K9
713821|VMACS|TX|BREED|GREAT PYRENEES
712988|VMACS|TX|SPECIES|K9
712988|VMACS|TX|BREED|BASSET HOUND
701517|VMACS|TX|SPECIES|K9
701517|VMACS|TX|BREED|GOLDEN RETRIEVER
713853|VMACS|TX|SPECIES|FE
713853|VMACS|TX|BREED|DOMESTIC SHORTHAIR
713835|VMACS|TX|SPECIES|FE
713835|VMACS|TX|BREED|DOMESTIC MEDIUM HAIR
713802|VMACS|TX|SPECIES|K9
713802|VMACS|TX|BREED|STAFFORDSHIRE TERRIER
391107|VMACS|TX|SPECIES|K9
391107|VMACS|TX|BREED|MIX
497674|VMACS|TX|SPECIES|K9
497674|VMACS|TX|BREED|MIX
713826|VMACS|TX|SPECIES|FE
713826|VMACS|TX|BREED|DOMESTIC SHORTHAIR
713868|VMACS|TX|SPECIES|K9
713868|VMACS|TX|BREED|BULLDOG, FRENCH
486105|VMACS|TX|SPECIES|K9
486105|VMACS|TX|BREED|LABRADOR RETRIEVER
713867|VMACS|TX|SPECIES|K9
713867|VMACS|TX|BREED|SILKY TERRIER
464664|VMACS|TX|SPECIES|K9
464664|VMACS|TX|BREED|WELSH CORGI, PEMBROKE
713990|VMACS|TX|SPECIES|K9
713990|VMACS|TX|BREED|MIX
461189|VMACS|TX|SPECIES|K9
461189|VMACS|TX|BREED|LABRADOR RETRIEVER
717656|VMACS|TX|SPECIES|K9
717656|VMACS|TX|BREED|CHIHUAHUA
429863|VMACS|TX|SPECIES|K9
429863|VMACS|TX|BREED|NORFOLK TERRIER
415451|VMACS|TX|SPECIES|K9
415451|VMACS|TX|BREED|MIX
713475|VMACS|TX|SPECIES|K9
713475|VMACS|TX|BREED|WEST HIGHLAND WHITE TERRIER
459523|VMACS|TX|SPECIES|K9
459523|VMACS|TX|BREED|GERMAN SHEPHERD DOG
388138|VMACS|TX|SPECIES|K9
388138|VMACS|TX|BREED|VIZSLA
713858|VMACS|TX|SPECIES|K9
713858|VMACS|TX|BREED|BERNESE MOUNTAIN DOG
713466|VMACS|TX|SPECIES|FE
713466|VMACS|TX|BREED|DOMESTIC LONGHAIR
481547|VMACS|TX|SPECIES|K9
481547|VMACS|TX|BREED|MIX
707300|VMACS|TX|SPECIES|K9
707300|VMACS|TX|BREED|CHIHUAHUA, LONG HAIRED
420210|VMACS|TX|SPECIES|K9
420210|VMACS|TX|BREED|BORDER COLLIE
713904|VMACS|TX|SPECIES|K9
713904|VMACS|TX|BREED|BULL TERRIER
416807|VMACS|TX|SPECIES|K9
416807|VMACS|TX|BREED|BELGIAN MALINOIS
713907|VMACS|TX|SPECIES|FE
713907|VMACS|TX|BREED|DOMESTIC MEDIUM HAIR
713908|VMACS|TX|SPECIES|FE
713908|VMACS|TX|BREED|DOMESTIC SHORTHAIR
713913|VMACS|TX|SPECIES|K9
713913|VMACS|TX|BREED|GOLDEN RETRIEVER
713912|VMACS|TX|SPECIES|K9
713912|VMACS|TX|BREED|MIX
714048|VMACS|TX|SPECIES|K9
714048|VMACS|TX|BREED|BORDER COLLIE
713923|VMACS|TX|SPECIES|FE
713923|VMACS|TX|BREED|DOMESTIC SHORTHAIR
714024|VMACS|TX|SPECIES|K9
714024|VMACS|TX|BREED|GERMAN SHEPHERD DOG
485325|VMACS|TX|SPECIES|FE
485325|VMACS|TX|BREED|DOMESTIC SHORTHAIR
459751|VMACS|TX|SPECIES|K9
459751|VMACS|TX|BREED|SCHNAUZER, MINIATURE
713116|VMACS|TX|SPECIES|K9
713116|VMACS|TX|BREED|POODLE, MINIATURE
705677|VMACS|TX|SPECIES|K9
705677|VMACS|TX|BREED|LABRADOR RETRIEVER
713942|VMACS|TX|SPECIES|K9
713942|VMACS|TX|BREED|PUG
702689|VMACS|TX|SPECIES|K9
702689|VMACS|TX|BREED|PIT BULL TERRIER
453098|VMACS|TX|SPECIES|K9
453098|VMACS|TX|BREED|CHESAPEAKE BAY RETRIEVER
710646|VMACS|TX|SPECIES|K9
710646|VMACS|TX|BREED|MIX
714032|VMACS|TX|SPECIES|K9
714032|VMACS|TX|BREED|MIX
713890|VMACS|TX|SPECIES|K9
713890|VMACS|TX|BREED|MIX
714033|VMACS|TX|SPECIES|FE
714033|VMACS|TX|BREED|DOMESTIC SHORTHAIR
713877|VMACS|TX|SPECIES|K9
713877|VMACS|TX|BREED|MIX
713331|VMACS|TX|SPECIES|FE
713331|VMACS|TX|BREED|DOMESTIC LONGHAIR
713576|VMACS|TX|SPECIES|FE
713576|VMACS|TX|BREED|SIAMESE
449517|VMACS|TX|SPECIES|K9
449517|VMACS|TX|BREED|MIX
713540|VMACS|TX|SPECIES|K9
713540|VMACS|TX|BREED|BORDER COLLIE
713504|VMACS|TX|SPECIES|K9
713504|VMACS|TX|BREED|GREAT DANE
713305|VMACS|TX|SPECIES|K9
713305|VMACS|TX|BREED|DOBERMAN PINSCHER
406171|VMACS|TX|SPECIES|FE
406171|VMACS|TX|BREED|DOMESTIC SHORTHAIR
413927|VMACS|TX|SPECIES|FE
413927|VMACS|TX|BREED|DOMESTIC SHORTHAIR
700442|VMACS|TX|SPECIES|K9
700442|VMACS|TX|BREED|MIX
708022|VMACS|TX|SPECIES|K9
708022|VMACS|TX|BREED|LABRADOR RETRIEVER
713594|VMACS|TX|SPECIES|K9
713594|VMACS|TX|BREED|CHIHUAHUA
712723|VMACS|TX|SPECIES|K9
712723|VMACS|TX|BREED|POMERANIAN
496947|VMACS|TX|SPECIES|K9
496947|VMACS|TX|BREED|YORKSHIRE TERRIER
444974|VMACS|TX|SPECIES|K9
444974|VMACS|TX|BREED|GERMAN SHEPHERD DOG
712660|VMACS|TX|SPECIES|K9
712660|VMACS|TX|BREED|COLLIE, ROUGH
711383|VMACS|TX|SPECIES|K9
711383|VMACS|TX|BREED|MIX
711819|VMACS|TX|SPECIES|FE
711819|VMACS|TX|BREED|DOMESTIC SHORTHAIR
712747|VMACS|TX|SPECIES|K9
712747|VMACS|TX|BREED|LEONBERGER
712732|VMACS|TX|SPECIES|K9
712732|VMACS|TX|BREED|MIX
701019|VMACS|TX|SPECIES|K9
701019|VMACS|TX|BREED|AUSTRALIAN CATTLE DOG
713445|VMACS|TX|SPECIES|K9
713445|VMACS|TX|BREED|DACHSHUND, MINIATURE
706642|VMACS|TX|SPECIES|K9
706642|VMACS|TX|BREED|MIX
446220|VMACS|TX|SPECIES|K9
446220|VMACS|TX|BREED|GERMAN SHEPHERD DOG
713485|VMACS|TX|SPECIES|K9
713485|VMACS|TX|BREED|MIX
712308|VMACS|TX|SPECIES|K9
712308|VMACS|TX|BREED|BELGIAN SHEEPDOG
489337|VMACS|TX|SPECIES|K9
489337|VMACS|TX|BREED|CAVALIER KING CHARLES SPANIEL
949704|VMACS|TX|SPECIES|AV
949704|VMACS|TX|BREED|AFRICAN GREY
949799|VMACS|TX|SPECIES|AV
949799|VMACS|TX|BREED|BALD EAGLE
713651|VMACS|TX|SPECIES|FE
713651|VMACS|TX|BREED|DOMESTIC SHORTHAIR
713507|VMACS|TX|SPECIES|K9
713507|VMACS|TX|BREED|DOBERMAN PINSCHER
713517|VMACS|TX|SPECIES|K9
713517|VMACS|TX|BREED|PUG
713608|VMACS|TX|SPECIES|K9
713608|VMACS|TX|BREED|COLLIE, ROUGH
950058|VMACS|TX|SPECIES|AV
950058|VMACS|TX|BREED|SWAINSON'S HAWK
713668|VMACS|TX|SPECIES|K9
713668|VMACS|TX|BREED|CHIHUAHUA
713632|VMACS|TX|SPECIES|K9
713632|VMACS|TX|BREED|MIX
415282|VMACS|TX|SPECIES|K9
415282|VMACS|TX|BREED|GOLDEN RETRIEVER
712022|VMACS|TX|SPECIES|K9
712022|VMACS|TX|BREED|BULLDOG, FRENCH
710456|VMACS|TX|SPECIES|K9
710456|VMACS|TX|BREED|MIX
713664|VMACS|TX|SPECIES|K9
713664|VMACS|TX|BREED|HAVANESE
416279|VMACS|TX|SPECIES|K9
416279|VMACS|TX|BREED|MIX
713652|VMACS|TX|SPECIES|K9
713652|VMACS|TX|BREED|MIX
950160|VMACS|TX|SPECIES|AV
950160|VMACS|TX|BREED|PIGEON
712115|VMACS|TX|SPECIES|K9
712115|VMACS|TX|BREED|CHIHUAHUA
413481|VMACS|TX|SPECIES|K9
413481|VMACS|TX|BREED|WEIMARANER
710333|VMACS|TX|SPECIES|K9
710333|VMACS|TX|BREED|BOXER
712312|VMACS|TX|SPECIES|K9
712312|VMACS|TX|BREED|BULLDOG, ENGLISH
712741|VMACS|TX|SPECIES|K9
712741|VMACS|TX|BREED|LABRADOR RETRIEVER
950049|VMACS|TX|SPECIES|AV
950049|VMACS|TX|BREED|SWAINSON'S HAWK
713706|VMACS|TX|SPECIES|K9
713706|VMACS|TX|BREED|CHIHUAHUA
707536|VMACS|TX|SPECIES|K9
707536|VMACS|TX|BREED|DOBERMAN PINSCHER
713617|VMACS|TX|SPECIES|K9
713617|VMACS|TX|BREED|GOLDEN RETRIEVER
713679|VMACS|TX|SPECIES|FE
713679|VMACS|TX|BREED|DOMESTIC SHORTHAIR
711064|VMACS|TX|SPECIES|FE
711064|VMACS|TX|BREED|PERSIAN
713658|VMACS|TX|SPECIES|K9
713658|VMACS|TX|BREED|COCKER SPANIEL, AMERICAN
417646|VMACS|TX|SPECIES|K9
417646|VMACS|TX|BREED|BICHON FRISE
399800|VMACS|TX|SPECIES|K9
399800|VMACS|TX|BREED|CHIHUAHUA
713740|VMACS|TX|SPECIES|K9
713740|VMACS|TX|BREED|POMERANIAN
459502|VMACS|TX|SPECIES|K9
459502|VMACS|TX|BREED|MIX
713671|VMACS|TX|SPECIES|K9
713671|VMACS|TX|BREED|YORKSHIRE TERRIER
713174|VMACS|TX|SPECIES|K9
713174|VMACS|TX|BREED|PIT BULL TERRIER
414033|VMACS|TX|SPECIES|K9
414033|VMACS|TX|BREED|BERNESE MOUNTAIN DOG
713739|VMACS|TX|SPECIES|K9
713739|VMACS|TX|BREED|MIX
713016|VMACS|TX|SPECIES|K9
713016|VMACS|TX|BREED|WHIPPET
712645|VMACS|TX|SPECIES|K9
712645|VMACS|TX|BREED|LABRADOR RETRIEVER
453942|VMACS|TX|SPECIES|K9
453942|VMACS|TX|BREED|POODLE, TOY
701405|VMACS|TX|SPECIES|K9
701405|VMACS|TX|BREED|MINIATURE PINSCHER
707832|VMACS|TX|SPECIES|K9
707832|VMACS|TX|BREED|SIBERIAN HUSKY
712796|VMACS|TX|SPECIES|FE
712796|VMACS|TX|BREED|DOMESTIC MEDIUM HAIR
450235|VMACS|TX|SPECIES|K9
450235|VMACS|TX|BREED|CHIHUAHUA
712201|VMACS|TX|SPECIES|K9
712201|VMACS|TX|BREED|BULLDOG, ENGLISH
713754|VMACS|TX|SPECIES|FE
713754|VMACS|TX|BREED|MIX
713939|VMACS|TX|SPECIES|K9
713939|VMACS|TX|BREED|SPRINGER SPANIEL, ENGLISH
713737|VMACS|TX|SPECIES|K9
713737|VMACS|TX|BREED|MIX
495506|VMACS|TX|SPECIES|K9
495506|VMACS|TX|BREED|AUSTRALIAN SHEPHERD
474586|VMACS|TX|SPECIES|K9
474586|VMACS|TX|BREED|MIX
452711|VMACS|TX|SPECIES|FE
452711|VMACS|TX|BREED|DOMESTIC SHORTHAIR
713358|VMACS|TX|SPECIES|K9
713358|VMACS|TX|BREED|SHIH TZU
397178|VMACS|TX|SPECIES|K9
397178|VMACS|TX|BREED|GORDON SETTER
713795|VMACS|TX|SPECIES|K9
713795|VMACS|TX|BREED|LHASA APSO
404200|VMACS|TX|SPECIES|K9
404200|VMACS|TX|BREED|JAPANESE CHIN
421107|VMACS|TX|SPECIES|K9
421107|VMACS|TX|BREED|MIX
702508|VMACS|TX|SPECIES|FE
702508|VMACS|TX|BREED|DOMESTIC SHORTHAIR
706046|VMACS|TX|SPECIES|K9
706046|VMACS|TX|BREED|PIT BULL TERRIER
713759|VMACS|TX|SPECIES|K9
713759|VMACS|TX|BREED|SCHNAUZER, MINIATURE
713575|VMACS|TX|SPECIES|K9
713575|VMACS|TX|BREED|MIX
713796|VMACS|TX|SPECIES|FE
713796|VMACS|TX|BREED|DOMESTIC SHORTHAIR
494994|VMACS|TX|SPECIES|K9
494994|VMACS|TX|BREED|AUSTRALIAN SHEPHERD
713809|VMACS|TX|SPECIES|FE
713809|VMACS|TX|BREED|DOMESTIC MEDIUM HAIR
713704|VMACS|TX|SPECIES|K9
713704|VMACS|TX|BREED|YORKSHIRE TERRIER
713798|VMACS|TX|SPECIES|K9
713798|VMACS|TX|BREED|STAFFORDSHIRE TERRIER
706135|VMACS|TX|SPECIES|K9
706135|VMACS|TX|BREED|POODLE, MINIATURE
705026|VMACS|TX|SPECIES|K9
705026|VMACS|TX|BREED|YORKSHIRE TERRIER
712413|VMACS|TX|SPECIES|K9
712413|VMACS|TX|BREED|GOLDEN RETRIEVER
713819|VMACS|TX|SPECIES|K9
713819|VMACS|TX|BREED|MIX
713820|VMACS|TX|SPECIES|K9
713820|VMACS|TX|BREED|MIX
713846|VMACS|TX|SPECIES|K9
713846|VMACS|TX|BREED|MIX
712894|VMACS|TX|SPECIES|FE
712894|VMACS|TX|BREED|DOMESTIC SHORTHAIR
713850|VMACS|TX|SPECIES|K9
713850|VMACS|TX|BREED|MIX
497506|VMACS|TX|SPECIES|K9
497506|VMACS|TX|BREED|RHODESIAN RIDGEBACK
702147|VMACS|TX|SPECIES|K9
702147|VMACS|TX|BREED|LABRADOR RETRIEVER
712529|VMACS|TX|SPECIES|K9
712529|VMACS|TX|BREED|JACK RUSSELL TERRIER
712583|VMACS|TX|SPECIES|K9
712583|VMACS|TX|BREED|BULLDOG, FRENCH
717390|VMACS|TX|SPECIES|K9
717390|VMACS|TX|BREED|MIX
712043|VMACS|TX|SPECIES|K9
712043|VMACS|TX|BREED|MIX
479556|VMACS|TX|SPECIES|FE
479556|VMACS|TX|BREED|DOMESTIC MEDIUM HAIR
710895|VMACS|TX|SPECIES|K9
710895|VMACS|TX|BREED|WELSH CORGI, PEMBROKE
711203|VMACS|TX|SPECIES|K9
711203|VMACS|TX|BREED|PIT BULL TERRIER
713991|VMACS|TX|SPECIES|FE
713991|VMACS|TX|BREED|DOMESTIC MEDIUM HAIR
713385|VMACS|TX|SPECIES|K9
713385|VMACS|TX|BREED|PAPILLON
713856|VMACS|TX|SPECIES|FE
713856|VMACS|TX|BREED|DOMESTIC LONGHAIR
444842|VMACS|TX|SPECIES|K9
444842|VMACS|TX|BREED|MIX
713961|VMACS|TX|SPECIES|K9
713961|VMACS|TX|BREED|BULLDOG, ENGLISH
493475|VMACS|TX|SPECIES|K9
493475|VMACS|TX|BREED|MIX
706594|VMACS|TX|SPECIES|K9
706594|VMACS|TX|BREED|GERMAN SHEPHERD DOG
713483|VMACS|TX|SPECIES|K9
713483|VMACS|TX|BREED|DACHSHUND
713857|VMACS|TX|SPECIES|K9
713857|VMACS|TX|BREED|LABRADOR RETRIEVER
706177|VMACS|TX|SPECIES|K9
706177|VMACS|TX|BREED|MIX
701558|VMACS|TX|SPECIES|K9
701558|VMACS|TX|BREED|MIX
713896|VMACS|TX|SPECIES|K9
713896|VMACS|TX|BREED|MIX
491575|VMACS|TX|SPECIES|K9
491575|VMACS|TX|BREED|CHIHUAHUA
717226|VMACS|TX|SPECIES|FE
717226|VMACS|TX|BREED|PERSIAN
708420|VMACS|TX|SPECIES|K9
708420|VMACS|TX|BREED|SCHNAUZER, MINIATURE
713903|VMACS|TX|SPECIES|K9
713903|VMACS|TX|BREED|DOBERMAN PINSCHER
713893|VMACS|TX|SPECIES|K9
713893|VMACS|TX|BREED|MIX
713895|VMACS|TX|SPECIES|K9
713895|VMACS|TX|BREED|BULLDOG, FRENCH
479711|VMACS|TX|SPECIES|K9
479711|VMACS|TX|BREED|CHIHUAHUA
713767|VMACS|TX|SPECIES|FE
713767|VMACS|TX|BREED|DOMESTIC SHORTHAIR
714049|VMACS|TX|SPECIES|K9
714049|VMACS|TX|BREED|PUG
713909|VMACS|TX|SPECIES|K9
713909|VMACS|TX|BREED|MIX
713918|VMACS|TX|SPECIES|K9
713918|VMACS|TX|BREED|AUSTRALIAN CATTLE DOG
950165|VMACS|TX|SPECIES|AV
950165|VMACS|TX|BREED|KITE WHITE-TAILED
704020|VMACS|TX|SPECIES|K9
704020|VMACS|TX|BREED|BORDER COLLIE
459018|VMACS|TX|SPECIES|FE
459018|VMACS|TX|BREED|DOMESTIC SHORTHAIR
449005|VMACS|TX|SPECIES|K9
449005|VMACS|TX|BREED|MIX
714030|VMACS|TX|SPECIES|FE
714030|VMACS|TX|BREED|DOMESTIC SHORTHAIR
700399|VMACS|TX|SPECIES|K9
700399|VMACS|TX|BREED|PUG
713812|VMACS|TX|SPECIES|K9
713812|VMACS|TX|BREED|MIX
714029|VMACS|TX|SPECIES|K9
714029|VMACS|TX|BREED|MIX
711932|VMACS|TX|SPECIES|K9
711932|VMACS|TX|BREED|PIT BULL TERRIER
496083|VMACS|TX|SPECIES|K9
496083|VMACS|TX|BREED|MIX
713886|VMACS|TX|SPECIES|K9
713886|VMACS|TX|BREED|GERMAN SHEPHERD DOG
711353|VMACS|TX|SPECIES|K9
711353|VMACS|TX|BREED|MIX
714034|VMACS|TX|SPECIES|K9
714034|VMACS|TX|BREED|STAFFORDSHIRE TERRIER
710452|VMACS|TX|SPECIES|K9
710452|VMACS|TX|BREED|DOGO
711279|VMACS|TX|SPECIES|K9
711279|VMACS|TX|BREED|CAVALIER KING CHARLES SPANIEL
458539|VMACS|TX|SPECIES|K9
458539|VMACS|TX|BREED|CHIHUAHUA, LONG HAIRED
710439|VMACS|TX|SPECIES|K9
710439|VMACS|TX|BREED|MIX
713525|VMACS|TX|SPECIES|K9
713525|VMACS|TX|BREED|GERMAN SHEPHERD DOG
710151|VMACS|TX|SPECIES|K9
710151|VMACS|TX|BREED|LABRADOR RETRIEVER
713629|VMACS|TX|SPECIES|K9
713629|VMACS|TX|BREED|BULLDOG, ENGLISH
839104|VMACS|TX|SPECIES|EQ
839104|VMACS|TX|BREED|SPORTHORSE
950082|VMACS|TX|SPECIES|LAGO
950082|VMACS|TX|BREED|DWARF HOTOT
711014|VMACS|TX|SPECIES|K9
711014|VMACS|TX|BREED|BORDER COLLIE
713659|VMACS|TX|SPECIES|FE
713659|VMACS|TX|BREED|RAGDOLL
717657|VMACS|TX|SPECIES|K9
717657|VMACS|TX|BREED|BOXER
713635|VMACS|TX|SPECIES|FE
713635|VMACS|TX|BREED|DOMESTIC MEDIUM HAIR
948302|VMACS|TX|SPECIES|LAGO
948302|VMACS|TX|BREED|REX
467104|VMACS|TX|SPECIES|K9
467104|VMACS|TX|BREED|MIX
839915|VMACS|TX|SPECIES|EQ
839915|VMACS|TX|BREED|MIX
713707|VMACS|TX|SPECIES|K9
713707|VMACS|TX|BREED|MIX
707957|VMACS|TX|SPECIES|K9
707957|VMACS|TX|BREED|POODLE
460998|VMACS|TX|SPECIES|K9
460998|VMACS|TX|BREED|COCKER SPANIEL, AMERICAN
949879|VMACS|TX|SPECIES|LAGO
949879|VMACS|TX|BREED|RABBIT
712721|VMACS|TX|SPECIES|K9
712721|VMACS|TX|BREED|MIX
417483|VMACS|TX|SPECIES|K9
417483|VMACS|TX|BREED|YORKSHIRE TERRIER
713834|VMACS|TX|SPECIES|K9
713834|VMACS|TX|BREED|PIT BULL TERRIER
446196|VMACS|TX|SPECIES|K9
446196|VMACS|TX|BREED|BOSTON TERRIER
711802|VMACS|TX|SPECIES|K9
711802|VMACS|TX|BREED|BEAGLE
710431|VMACS|TX|SPECIES|K9
710431|VMACS|TX|BREED|PORTUGUESE WATER DOG
710453|VMACS|TX|SPECIES|K9
710453|VMACS|TX|BREED|MIX
477577|VMACS|TX|SPECIES|K9
477577|VMACS|TX|BREED|BULLDOG
839943|VMACS|TX|SPECIES|EQ
839943|VMACS|TX|BREED|THOROUGHBRED
668098|VMACS|TX|SPECIES|EQ
668098|VMACS|TX|BREED|HANOVERIAN
713900|VMACS|TX|SPECIES|K9
713900|VMACS|TX|BREED|JACK RUSSELL TERRIER
689070|VMACS|TX|SPECIES|EQ
689070|VMACS|TX|BREED|DUTCH WARMBLOOD
686033|VMACS|TX|SPECIES|EQ
686033|VMACS|TX|BREED|QUARTER HORSE
839809|VMACS|TX|SPECIES|EQ
839809|VMACS|TX|BREED|QUARTER HORSE]
697652|VMACS|TX|SPECIES|EQ
697652|VMACS|TX|BREED|THOROUGHBRED
839890|VMACS|TX|SPECIES|EQ
839890|VMACS|TX|BREED|THOROUGHBRED
839918|VMACS|TX|SPECIES|EQ
839918|VMACS|TX|BREED|AMERICAN PAINT HORSE
839925|VMACS|TX|SPECIES|EQ
839925|VMACS|TX|BREED|THOROUGHBRED
839457|VMACS|TX|SPECIES|EQ
839457|VMACS|TX|BREED|ANDALUSIAN
699164|VMACS|TX|SPECIES|EQ
699164|VMACS|TX|BREED|FRIESIAN
692690|VMACS|TX|SPECIES|EQ
692690|VMACS|TX|BREED|QUARTER HORSE
699702|VMACS|TX|SPECIES|EQ
699702|VMACS|TX|BREED|HOLSTEINER
839682|VMACS|TX|SPECIES|EQ
839682|VMACS|TX|BREED|WELSH