Patientid|IssuerOfPatientId|LastName|FirstName|MiddleName|MaidenName|Sex|DateOfBirth
839783|VMACS|Bartolomei|Dolly|EQ|QUARTER HORSE|F|20080724
839784|VMACS|Padilla|Dante|EQ|AMERICAN MINIATURE|M|20100101
839215|VMACS|Tank|Tramp|CAP|NIGERIAN DWARF GOAT|F|20200325
839761|VMACS|McFarland|Jack|EQ|QUARTER HORSE]|M|20160301
839643|VMACS|Tucker|Apple Dumplin|CAP|NIGERIAN DWARF GOAT|F|20180312
839071|VMACS|Kaveski|Jackson|EQ|STANDARDBRED|M|19980101
839894|VMACS|Crouch|Baby Tahoe|EQ|QUARTER HORSE]|F|20090101
839895|VMACS|Goodner|April|EQ|QUARTER HORSE|F|20050414
839787|VMACS|Peterson|Clout|EQ|ARABIAN|F|20070101
689588|VMACS|Ferrero|Vincent Van Goat|CAP|AFRICAN PYGMY|M|20160601
698126|VMACS|Ojala|Desert Dew|EQ|ARABIAN|F|20140101
839919|VMACS|Villanueva|Nutmeg|EQ|MIX|F|20020101
839887|VMACS|Ernest|Buddy|EQ|APPALOOSA|M|20070101
839920|VMACS|Diaz|Annie|EQ|QUARTER HORSE]|F|20140101
691157|VMACS|Ojala|Lanni|EQ|ARABIAN|F|20100101
839792|VMACS|Lazuka|Levi|EQ|AMERICAN PAINT HORSE|M|20150101
839431|VMACS|Harris|Gulliver|CAP|AFRICAN PYGMY|M|20180309
839813|VMACS|Pollard|I Feel Fast (Honor)|EQ|QUARTER HORSE]|F|20120101
696025|VMACS|Ritchie|Chilli|EQ|QUARTER HORSE]|M|20060101
693345|VMACS|Rounsaville|Brimstone|EQ|DUTCH WARMBLOOD|M|20070101
839778|VMACS|Richetta|Anteros|EQ|ARABIAN|M|20150101
699885|VMACS|Smith|That's Finnegan|EQ|IRISH SPORT HORSE|M|20090925
839905|VMACS|Grattan|Zombado|EQ|LUSITANO|M|20050101
839815|VMACS|Grannan|Zeus|EQ|LUSITANO|M|20080101
699503|VMACS|Kuhn|Temper|EQ|AMERICAN PAINT HORSE|M|19990101
839907|VMACS|Musarra|Mochaccino|EQ|PASO FINO|F|19940101
839891|VMACS|Woo|Dino (Quidano)|EQ|WARMBLOOD|M|20070101
839789|VMACS|Gonsalves|Bud|CAP|MIX|M|20150101
839703|VMACS|Pierson|Tag 358|BOV|BEEFMASTER|F|
839913|VMACS|Leonard|Chaparo|EQ|MIX|M|20020101
670058|VMACS|Burke|Sophie|EQ|THOROUGHBRED|F|20050101
839760|VMACS|Foltz|Ben|CAP|ANGORA|M|20200609
670761|VMACS|Swickard|Riviera Sunset|EQ|QUARTER HORSE|F|20000101
839845|VMACS|Ehrich|Sunny|EQ|CONNEMARA PONY|F|19990101
839654|VMACS|Silva|Rye|EQ|WARMBLOOD|M|20080101
839089|VMACS|Montoya|Oliver|CAP|NIGERIAN DWARF GOAT|M|20191101
839843|VMACS|Potter|Brown And Black Buck|CAP|SAN CLEMENTE GOAT|M|
839376|VMACS|Edmonds|Gracie|EQ|MIX|F|20000101
839916|VMACS|Equi|Henry (Tattersall)|EQ|WARMBLOOD|M|20081015
686169|VMACS|McCullough|Aurum|EQ|MIX|M|20080101
839926|VMACS|Rubin|Bree|CAP|PYGMY|F|20130101
839647|VMACS|Watson|Summer|EQ|WARMBLOOD|F|20030101
949858|VMACS|Stahl|Stormy|XHF|ALPACA|M|20200101
699204|VMACS|Dunlap|Calabaza (Baza)|EQ|ANDALUSIAN|F|20090519
696765|VMACS|Silva|Chapo|EQ|QUARTER HORSE]|M|20060101
839601|VMACS|Valley|Two Smart A Cat (Smarty)|EQ|QUARTER HORSE]|F|20100101
698056|VMACS|Shackelford|Brave Heart|EQ|ARABIAN|M|20090101
839934|VMACS|Brinsley|Luna|EQ|QUARTER HORSE]|F|20170512
839766|VMACS|Webb|Max|EQ|QUARTER HORSE]|M|20000101
689849|VMACS|Flores|Pip|EQ|IRISH SPORT HORSE|F|20060101
839839|VMACS|Stewart Ranch & Stewart|Bull|BOV|ANGUS|M|20170803
692682|VMACS|Foust|Turbo|EQ|QUARTER HORSE|M|20040101
839940|VMACS|Bachman|North Freeway 20 Colt|EQ|THOROUGHBRED|M|20200414
839945|VMACS|Lieurance|Cashew|POR|POT BELLY|U|20180201
696692|VMACS|CEH Sb518-Gen Ops|Speak Easy Gal 16|EQ|THOROUGHBRED|F|20160419
663923|VMACS|Etting|Jonah|EQ|MIX|M|20080701
839846|VMACS|Kaufmann|Crash (Quack Man)|EQ|QUARTER HORSE|M|20180101
839941|VMACS|Melcon|Indigo Sf|EQ|ARABIAN|M|20080101
839498|VMACS|Phillips|Caroline|EQ|OLDENBURG|F|20120101
839848|VMACS|Steffan|Marvin|EQ|QUARTER HORSE|M|20150101
839942|VMACS|Traver|Kyle|CAP|LAMANCHA|M|20200603
839953|VMACS|Pitassi|Lady's Dance 2020 Colt|EQ|ARABIAN|M|20200607
839788|VMACS|Jacobson|Duck|EQ|QUARTER HORSE|M|20090808
839849|VMACS|Conant|Bella|EQ|QUARTER HORSE|F|20150808
698678|VMACS|Ernest|Ducky|CAP|NUBIAN|F|20190331
675738|VMACS|Gaynes|Juno|EQ|MIX|F|20000101
698075|VMACS|Tyra|Friday|EQ|THOROUGHBRED|M|20040101
840181|VMACS|Gee|Gabe|EQ|WARMBLOOD|M|20020101
840180|VMACS|West|Velvet (Wf Flamenca)|EQ|WARMBLOOD|F|20090904
840177|VMACS|Davis|Smoke|EQ|QUARTER HORSE]|M|20140101
839948|VMACS|Frey|Ember|EQ|DUTCH WARMBLOOD|M|20090101
681388|VMACS|Hunt|Clancy|EQ|MISSOURI FOX TROTTER|M|19990101
839967|VMACS|Aleman|Skippin|EQ|PONY|F|20030101
839996|VMACS|Zimmerman|Zorro|POR|VIETNAMESE POT BELLY|M|20120101
839074|VMACS|Casteel|Roscoe|POR|POT BELLY|M|20180101
838432|VMACS|Sala|Cash|EQ|QUARTER HORSE]|M|20050101
839955|VMACS|Fisk|Jj|OV|MIX|F|20190601
839954|VMACS|Joel Gott Wines & Anderson|Clark|EQ|DONKEY|M|20170101
713534|VMACS|Anaig|Milo|K9|BULLDOG, FRENCH|M|20160701
713639|VMACS|Casper|Frawley|K9|GERMAN SHEPHERD DOG|U|20130725
713514|VMACS|Muntz|Blue|K9|DACHSHUND|M|20200423
713542|VMACS|Ramos|Hank|K9|DACHSHUND, MINIATURE|M|20140101
713509|VMACS|Clements|Charlie|K9|BULLDOG, FRENCH|M|20180101
713548|VMACS|Hawkins|Tamaki|FE|DOMESTIC SHORTHAIR|M|20100101
713580|VMACS|Lopez|Christopher|K9|BULLDOG, FRENCH|M|20200126
713595|VMACS|Basco|Doc|K9|CANE CORSO|M|20170726
713650|VMACS|Delagnes|Lola|K9|MIX|U|20121031
713569|VMACS|Gardner|Bruno|K9|BULLDOG, FRENCH|M|20190101
713605|VMACS|Turley|Splash|K9|DACHSHUND|M|20090101
713587|VMACS|Rubalcava|Khloe|K9|SHIH TZU|U|20110902
713604|VMACS|Leavitt|Stella|K9|LABRADOR RETRIEVER|U|20100101
713729|VMACS|Mezzetta|Basil|K9|LABRADOR RETRIEVER|M|20100101
710266|VMACS|Huizar|Hunter|K9|CHIHUAHUA|U|20110602
419599|VMACS|Jorth|Jazz|K9|POMERANIAN|M|20130101
713521|VMACS|Gruhlke|Siam|FE|MIX|M|20190101
712814|VMACS|Maloney|Jasmine Aka Jazzy|K9|MIX|U|20080703
705794|VMACS|Puchbauer|Hanni|K9|SHIBA INU|M|20091221
710265|VMACS|Fouts|Hunny|K9|MIX|U|20080101
713745|VMACS|Hayman|Biscuit|K9|BULLDOG, FRENCH|M|20170723
713734|VMACS|Lindstrom|Posie|K9|MIX|U|20141218
713782|VMACS|Whited|Bella|K9|DACHSHUND|U|20100801
713778|VMACS|Tateosian|Felicity|K9|MIX|U|20080301
713752|VMACS|Fisher|Jonah|K9|BULLDOG, FRENCH|M|20160101
713779|VMACS|Perez|Harley|K9|CHIHUAHUA|M|20110801
713933|VMACS|Lanzoni|Gabriel|K9|ROTTWEILER|M|20090701
713763|VMACS|Jacobo|Mocha|K9|CHIHUAHUA|U|20120101
713799|VMACS|Berger|Daisy|K9|MIX|U|20110101
713797|VMACS|Mattingly|Ivory|K9|MIX|U|20080503
459052|VMACS|Weyers|Snowy|K9|MIX|M|20141020
713841|VMACS|Frazer|Lady|K9|COCKER SPANIEL,ENGLISH|U|20080101
446512|VMACS|Danos|Lois Lane|K9|BULLDOG, FRENCH|U|20111126
713962|VMACS|Allen|Barbie|K9|PIT BULL TERRIER|U|20130101
712147|VMACS|Wood|Talen|K9|CHIHUAHUA|M|20080101
713864|VMACS|Buckley|Ally|FE|DOMESTIC SHORTHAIR|U|20120805
713860|VMACS|Andres|Emma|K9|POODLE, MINIATURE|U|20140201
712998|VMACS|Johnson|Zeke|K9|SIBERIAN HUSKY|M|20120205
713844|VMACS|Thomas|Daizy|K9|COCKER SPANIEL, AMERICAN|U|20170101
713917|VMACS|Carpenter|Harley|K9|AUSTRALIAN SHEPHERD|U|20150101
713827|VMACS|Diricco|Killua|K9|AUSTRALIAN CATTLE DOG|M|20170502
714021|VMACS|Shields|Buddy|K9|DACHSHUND|M|20071101
714035|VMACS|Loop|Petals|K9|WELSH CORGI, PEMBROKE|F|20160101
713512|VMACS|Cook|Sebastian|K9|MIX|M|20140101
713357|VMACS|Lowi|Hooper|FE|PERSIAN|M|20100801
713537|VMACS|Van Neter|Bella|K9|SPRINGER SPANIEL, ENGLISH|F|20200713
713553|VMACS|McKinnon|Frodo|K9|RHODESIAN RIDGEBACK|M|20120101
713535|VMACS|Stracker|Aussie|K9|AUSTRALIAN SHEPHERD|U|20080701
713596|VMACS|Crowley|Dutchess|K9|PIT BULL TERRIER|U|20130101
497594|VMACS|Gini|Violet|K9|LABRADOR RETRIEVER|U|20170329
713546|VMACS|Peterkinson|Harv|K9|BELGIAN MALINOIS|M|20150701
713593|VMACS|Lewis|Diamond|FE|DOMESTIC SHORTHAIR|U|20160726
713505|VMACS|Neuenburg|Phoebe|FE|DOMESTIC SHORTHAIR|U|20060101
712671|VMACS|Battle|Gemma|K9|WHIPPET|U|20100101
950163|VMACS|Caddell|Corvo|REP|BEARDED DRAGON|F|20160101
462320|VMACS|Englund|Pokey|K9|CAVALIER KING CHARLES SPANIEL|U|20080730
414393|VMACS|Johnson|Piper|K9|POMERANIAN|U|20130101
710458|VMACS|Funk|Charlie|K9|MIX|U|20090101
946597|VMACS|Wray|Frankie|AV|LESSER SULFUR COCKATOO|F|19970101
713631|VMACS|Johnson|Zucker|K9|AUSTRALIAN CATTLE DOG|M|20200208
712380|VMACS|Homeward Bound Golden Retriever Rescue|Bonnie|K9|GOLDEN RETRIEVER|U|20180909
373915|VMACS|Ram|Baxter|K9|POODLE, TOY|M|20060123
712559|VMACS|Marmor|Swayze|K9|CATAHOULA HOG DOG|M|20080812
707257|VMACS|Khaki|Daisy|K9|POMERANIAN|U|20060501
431790|VMACS|Cheng|Pocky|K9|YORKSHIRE TERRIER|U|20060203
713437|VMACS|Mueller|Kimmie|FE|DOMESTIC LONGHAIR|U|20040101
419643|VMACS|Swafford|Buster Brown|K9|MINIATURE PINSCHER|M|20170801
713538|VMACS|Hill|Destiny|K9|GERMAN SHEPHERD DOG|U|20050724
454711|VMACS|Negri|Rooney|K9|AKITA|M|20090909
711768|VMACS|Calaveras Humane Society|Bree|K9|MIX|F|20200130
713554|VMACS|Koppa|Chica|K9|MIX|U|
713584|VMACS|Nicoll|Kc|K9|BOLOGNESE|M|20070101
496434|VMACS|Levy|Digby|K9|MIX|M|20090318
702342|VMACS|Tomek|Rose|K9|MIX|U|20110101
713599|VMACS|Li|Tango|K9|POODLE, MINIATURE|M|20070101
490875|VMACS|Pierson|Bo|K9|LABRADOR RETRIEVER|M|20080101
701480|VMACS|Pizano-Bellotti|Paloma|K9|MIX|U|20170920
713611|VMACS|Barron|Charlee|K9|GOLDEN RETRIEVER|U|20170101
712945|VMACS|Crisp|Millie|K9|MIX|U|20150101
713616|VMACS|Sequeira|Lilly|K9|GOLDEN RETRIEVER|U|20070417
700986|VMACS|Manner|Andy|K9|LABRADOR RETRIEVER|M|20120323
713615|VMACS|Shiga|Blitz|FE|DOMESTIC SHORTHAIR|M|20080923
402301|VMACS|Palm|Greysie|K9|WEIMARANER|U|20040901
711813|VMACS|Orphan Kitten Project Okp|Fig|FE|SIAMESE|M|20200504
458886|VMACS|Kenny|Cody|K9|MIX|M|20090601
713638|VMACS|Prado|Vinnie|K9|DOGUE DE BORDEAUX|M|20160226
418030|VMACS|Croteau|Diva|K9|MIX|U|20051201
717563|VMACS|Nichol|Grace|K9|NOVA SCOTIA DUCK TOLLING RET|U|20070131
707113|VMACS|Ley|Suzika|FE|DOMESTIC SHORTHAIR|U|20070523
410074|VMACS|Newcomb|Lady Emerald|FE|AMERICAN SHORTHAIR|U|20050605
703519|VMACS|Kasten|Peach|K9|LABRADOR RETRIEVER|U|20090101
713609|VMACS|Martinez|Waffles|K9|MIX|M|20120420
713428|VMACS|Crews|Spencer|K9|MIX|M|20060101
713645|VMACS|Whitham|Misty|K9|GOLDEN RETRIEVER|F|20200302
708274|VMACS|Lingemann|Lily|FE|SIAMESE|U|20140325
713643|VMACS|Suan|Summer|FE|DOMESTIC SHORTHAIR|U|20140924
713657|VMACS|Shevtchenko|Darlington Aka Cookie|K9|BEAGLE|F|20180722
704016|VMACS|Harris|Vixen|K9|MIX|U|20140401
713705|VMACS|McKinney|Zach|K9|WEIMARANER|M|20140729
713653|VMACS|Prothro|Josie|K9|BLOODHOUND|U|20110729
459457|VMACS|Ilizaliturri|Roxy|K9|TIBETAN TERRIER|F|20060101
469333|VMACS|Scott|Lucy|K9|CAVALIER KING CHARLES SPANIEL|U|20150327
707439|VMACS|Brown|Dougie|K9|MIX|M|20141212
423756|VMACS|Bobonich|Sophie|K9|MIX|U|20090307
466854|VMACS|Shuford|Jackson|FE|DOMESTIC SHORTHAIR|M|20060315
710457|VMACS|Milano|Willow|K9|MIX|U|20110101
713669|VMACS|Osten|Rosie|FE|DOMESTIC SHORTHAIR|U|20041116
473251|VMACS|Jong|Bear|K9|MIX|M|20070101
476956|VMACS|Iranpour|Bebe|K9|MALTESE|M|20090901
710164|VMACS|Matter|Dashiell|K9|POODLE, STANDARD|M|20101229
713634|VMACS|Dowdy|Chelsey|K9|MIX|F|20200701
713719|VMACS|Link|Bella|K9|AUSTRALIAN CATTLE DOG|U|
713716|VMACS|Knapp|Raven|K9|LABRADOR RETRIEVER|F|20190701
460201|VMACS|Rorke|Sarah|K9|HAVANESE|U|20061001
480613|VMACS|Turkovich|Choco|K9|MIX|M|20140101
705710|VMACS|Taylor|Bailey|K9|TIBETAN TERRIER|U|20080101
713748|VMACS|Pajoohi|Pippa|K9|WELSH TERRIER|U|20110101
488570|VMACS|Maki|Teddy|K9|WELSH CORGI, PEMBROKE|M|20090401
713562|VMACS|Blind|Ocelot|FE|DOMESTIC SHORTHAIR|M|20140101
470659|VMACS|Scott|Kilo|K9|POODLE, STANDARD|U|20090101
713733|VMACS|Wright|Sofie|FE|DOMESTIC SHORTHAIR|U|20141020
713709|VMACS|Harrington|Bella|K9|BULLDOG, FRENCH|U|20100404
452004|VMACS|Fessler|Charlie|K9|CHIHUAHUA|M|20100101
447756|VMACS|Canlis|Tessie Rose|K9|MALTESE|U|20090613
713362|VMACS|Walia|Oreo|K9|SHIH TZU|M|20100101
713731|VMACS|Robles|Lola|K9|BULLDOG, ENGLISH|F|20150604
713662|VMACS|Jepson|Logan|K9|IRISH WOLFHOUND|M|20140926
717463|VMACS|Hill|Phoebe|K9|BULLDOG, FRENCH|U|20121020
713756|VMACS|Howerton|Charlotte|K9|MIX|F|20171119
713785|VMACS|Alonzo|Shorty|K9|BULLDOG, FRENCH|M|20090925
716889|VMACS|Gershenz|Samantha|K9|MIX|U|20101129
707462|VMACS|Deviny|Wilma/ Wiggles|K9|LABRADOR RETRIEVER|U|20070605
701096|VMACS|Lau|Kuma|K9|BICHON FRISE|U|20081110
708177|VMACS|Gannon|Millie|K9|COCKER SPANIEL,ENGLISH|U|20130613
428590|VMACS|Gard|Buster|K9|MIX|M|20040101
713790|VMACS|Hopkins|Kona|K9|LABRADOR RETRIEVER|M|20100617
432290|VMACS|Nielsen|Chewie|K9|CHIHUAHUA|M|20071004
713789|VMACS|Williams|Glinda|K9|ITALIAN GREYHOUND|U|20120201
712404|VMACS|Hoagland|Target|K9|MIX|U|20100101
713935|VMACS|Lindsay|Lola|K9|CHIHUAHUA|U|20070101
702272|VMACS|Schmidt|Dobby|FE|DOMESTIC SHORTHAIR|M|20190420
713936|VMACS|Giles|Hercules|FE|DOMESTIC SHORTHAIR|M|20070709
713938|VMACS|Orphan Kitten Project Okp|Fern|FE|DOMESTIC SHORTHAIR|F|20200706
701423|VMACS|Youngblood|Sprite|K9|MIX|U|20110101
713619|VMACS|Skinnert|Gunther|K9|GERMAN SHEPHERD DOG|M|20110414
430854|VMACS|Sandoval|King|K9|MIX|M|20100101
713811|VMACS|Hickey|Camo|K9|MIX|M|20170801
713805|VMACS|Godbehere|Diego|FE|DOMESTIC SHORTHAIR|M|20130317
488680|VMACS|Tschirky|Roxy|K9|BOXER|U|20111225
713369|VMACS|Follrath|Maya|K9|PIT BULL TERRIER|U|20100101
486312|VMACS|Young|Alex|K9|GREAT DANE|M|20101205
713928|VMACS|Silva|Hachi|K9|YORKSHIRE TERRIER|M|20111017
713830|VMACS|Zuwala|Henry|K9|MIX|M|20080803
710440|VMACS|Franklin|Shenzy|K9|MIX|U|20110101
499982|VMACS|Levi|Gonzo|K9|DACHSHUND, MINIATURE|M|20120712
493302|VMACS|Thomas|Jet|K9|LABRADOR RETRIEVER|M|20081216
713633|VMACS|North|Bella|K9|LABRADOR RETRIEVER|U|20090730
713932|VMACS|Nixon|Maggie|K9|BEAGLE|U|20160701
710454|VMACS|Condon|Brinkley|K9|LABRADOR RETRIEVER|M|20071128
712106|VMACS|Vu|Figaro|FE|DOMESTIC LONGHAIR|M|20170101
370121|VMACS|Allen|Cho Cho|K9|HAVANESE|M|20040603
712396|VMACS|Dosch|Fufu|K9|DACHSHUND|U|20050101
713365|VMACS|Crowe|Dexter|K9|GOLDEN RETRIEVER|M|20091001
713760|VMACS|Johnson|Lola|FE|SIAMESE|U|20070101
408106|VMACS|Champieux|Rudy|K9|MIX|M|20050524
713821|VMACS|Stewart|Blu|K9|GREAT PYRENEES|M|20181001
712988|VMACS|Leverett|Sadie|K9|BASSET HOUND|U|20110201
701517|VMACS|Reed|Murphy|K9|GOLDEN RETRIEVER|M|20090201
713853|VMACS|Cain|Harley|FE|DOMESTIC SHORTHAIR|M|20100101
713835|VMACS|Burton|Kiki|FE|DOMESTIC MEDIUM HAIR|M|20080101
713802|VMACS|Hogan|Abby|K9|STAFFORDSHIRE TERRIER|U|20090101
391107|VMACS|Straub DVM|Max|K9|MIX|M|
497674|VMACS|Gier|Maddie|K9|MIX|U|20150101
713826|VMACS|Solano County Animal Care & Control|Jellybean Aka A257417|FE|DOMESTIC SHORTHAIR|U|20200305
713868|VMACS|Torres|Tegan|K9|BULLDOG, FRENCH|U|20080101
486105|VMACS|Skinner|Dan|K9|LABRADOR RETRIEVER|M|20100129
713867|VMACS|Young|Maddie|K9|SILKY TERRIER|U|20090101
464664|VMACS|To|Hime|K9|WELSH CORGI, PEMBROKE|U|20110101
713990|VMACS|Medeiros|Cocoa|K9|MIX|U|20130805
461189|VMACS|Takane|Gino Bambino|K9|LABRADOR RETRIEVER|M|20040101
717656|VMACS|Perez|Sonia|K9|CHIHUAHUA|U|20100501
429863|VMACS|Rondone|Jacqueline|K9|NORFOLK TERRIER|U|20100819
415451|VMACS|Fink|Oscar|K9|MIX|M|20040101
713475|VMACS|Orgambide|Macduff|K9|WEST HIGHLAND WHITE TERRIER|M|20090729
459523|VMACS|Omeara|Ruby|K9|GERMAN SHEPHERD DOG|U|20110303
388138|VMACS|Hayes|Ginny|K9|VIZSLA|U|20080317
713858|VMACS|Hatton|Mr Bingley|K9|BERNESE MOUNTAIN DOG|M|20150711
713466|VMACS|Hopper|Link|FE|DOMESTIC LONGHAIR|M|20181215
481547|VMACS|Pappa|Maddy|K9|MIX|U|20060101
707300|VMACS|Luna|Ella|K9|CHIHUAHUA, LONG HAIRED|U|20080101
420210|VMACS|Lyans|Flo|K9|BORDER COLLIE|U|20101112
713904|VMACS|Galileo|Zuul|K9|BULL TERRIER|M|20130101
416807|VMACS|Cutter|Kai|K9|BELGIAN MALINOIS|F|20140101
713907|VMACS|Yin|Sully|FE|DOMESTIC MEDIUM HAIR|M|20080801
713908|VMACS|Catini|Bagheera|FE|DOMESTIC SHORTHAIR|U|20190201
713913|VMACS|Laughlin|Chloe|K9|GOLDEN RETRIEVER|U|20100101
713912|VMACS|Scheutz|Gunther|K9|MIX|M|20110101
714048|VMACS|Stewart|Whisper|K9|BORDER COLLIE|U|20060808
713923|VMACS|Diamond|Rufus|FE|DOMESTIC SHORTHAIR|M|20020101
714024|VMACS|Trakhter|Alfa|K9|GERMAN SHEPHERD DOG|U|20160101
485325|VMACS|Harden|Miga|FE|DOMESTIC SHORTHAIR|U|20110101
459751|VMACS|Devies|Ellee|K9|SCHNAUZER, MINIATURE|U|20070101
713116|VMACS|Martinez|Bella|K9|POODLE, MINIATURE|U|20080101
705677|VMACS|Confetti|Holly|K9|LABRADOR RETRIEVER|U|20110501
713942|VMACS|Munoz|Luke|K9|PUG|M|20190110
702689|VMACS|Robison|Mugsy|K9|PIT BULL TERRIER|M|20071227
453098|VMACS|Kooken|Meghan|K9|CHESAPEAKE BAY RETRIEVER|U|20130416
710646|VMACS|Fahim|Marvin|K9|MIX|M|20110101
714032|VMACS|Godsworth|Cheetah|K9|MIX|M|20170101
713890|VMACS|Beltran|Voochi|K9|MIX|U|20140801
714033|VMACS|Rayshel|Dewey|FE|DOMESTIC SHORTHAIR|M|20070101
713877|VMACS|Roberts|Charlie|K9|MIX|M|20100630
713331|VMACS|Morris|Boba|FE|DOMESTIC LONGHAIR|U|20180401
713576|VMACS|Ho|Coco|FE|SIAMESE|F|20200401
449517|VMACS|Lopez-Trejo|Tanzi|K9|MIX|U|20130212
713540|VMACS|Clark|Sue|K9|BORDER COLLIE|M|20200501
713504|VMACS|Stephens|Nesta|K9|GREAT DANE|M|20191126
713305|VMACS|Sidhu|Duke|K9|DOBERMAN PINSCHER|M|20170316
406171|VMACS|La Sance|Clover|FE|DOMESTIC SHORTHAIR|U|20081021
413927|VMACS|McGill|Fuzz|FE|DOMESTIC SHORTHAIR|M|20120601
700442|VMACS|Landfield|Lexi|K9|MIX|U|20170101
708022|VMACS|Stanley|Luna|K9|LABRADOR RETRIEVER|U|20140303
713594|VMACS|Plascencia|Lily|K9|CHIHUAHUA|U|20080926
712723|VMACS|Allen|Lyon|K9|POMERANIAN|M|20111219
496947|VMACS|Washington|Gizmo|K9|YORKSHIRE TERRIER|M|20170522
444974|VMACS|Bailey|Maggie|K9|GERMAN SHEPHERD DOG|U|20080101
712660|VMACS|Gemmell|Rex|K9|COLLIE, ROUGH|M|20111001
711383|VMACS|Menezes|Abbey Road|K9|MIX|U|20090328
711819|VMACS|Garza|Peach|FE|DOMESTIC SHORTHAIR|U|20190530
712747|VMACS|Soetebier|Ludwig|K9|LEONBERGER|M|20200220
712732|VMACS|Merritt|Red|K9|MIX|U|20090101
701019|VMACS|Matulovich|Jack|K9|AUSTRALIAN CATTLE DOG|M|20161020
713445|VMACS|Tsujimoto|Muliphen|K9|DACHSHUND, MINIATURE|M|20060825
706642|VMACS|Cook|Leonard|K9|MIX|M|20171117
446220|VMACS|Weston|Ava|K9|GERMAN SHEPHERD DOG|U|20130101
713485|VMACS|Mallery|Olive|K9|MIX|U|20150120
712308|VMACS|Singh|Iskandar|K9|BELGIAN SHEEPDOG|M|20171218
489337|VMACS|Knop|Oscar|K9|CAVALIER KING CHARLES SPANIEL|M|20111101
949704|VMACS|Askim|Gilmore|AV|AFRICAN GREY|F|
949799|VMACS|Raptor Stray Coha 8-10|Bald Eagle 04/30/2020|AV|BALD EAGLE|U|
713651|VMACS|Peterson|Burchfield|FE|DOMESTIC SHORTHAIR|U|19990101
713507|VMACS|McLelan|Mystique|K9|DOBERMAN PINSCHER|F|20191201
713517|VMACS|Shriver|Festus|K9|PUG|M|20191122
713608|VMACS|Halstead|Lucy|K9|COLLIE, ROUGH|U|20171111
950058|VMACS|Raptor Stray Coha 8-10|Swainson's Hawk 7/28/2020|AV|SWAINSON'S HAWK|U|
713668|VMACS|Salamone|Harley|K9|CHIHUAHUA|M|20200128
713632|VMACS|Thompson|Rumi|K9|MIX|M|20190101
415282|VMACS|Gurau|Kanchha|K9|GOLDEN RETRIEVER|M|20170701
712022|VMACS|Acosta|Mae|K9|BULLDOG, FRENCH|F|20200301
710456|VMACS|Surmani|Bailey|K9|MIX|M|20120218
713664|VMACS|Antic|Quincy|K9|HAVANESE|M|20050309
416279|VMACS|Thomason|Atticus|K9|MIX|M|20160501
713652|VMACS|Soft Paws Rescue|Hopper|K9|MIX|M|20200225
950160|VMACS|Nieberg|Pip|AV|PIGEON|F|20120701
712115|VMACS|Shaw|Pearl|K9|CHIHUAHUA|U|20051010
413481|VMACS|Scarff|Bailey|K9|WEIMARANER|U|20120917
710333|VMACS|McDilda|Rocky|K9|BOXER|M|20181227
712312|VMACS|McCafferty|Mack|K9|BULLDOG, ENGLISH|M|20190501
712741|VMACS|Albert|Jack|K9|LABRADOR RETRIEVER|M|20091015
950049|VMACS|Raptor Stray Coha 8-10|Swh 7/29/20|AV|SWAINSON'S HAWK|U|
713706|VMACS|Edsall|Paco|K9|CHIHUAHUA|M|20090101
707536|VMACS|Salisch|Zeus|K9|DOBERMAN PINSCHER|M|20111212
713617|VMACS|Hawkins|Butters|K9|GOLDEN RETRIEVER|M|20180304
713679|VMACS|Yolo County Animal Services|A182036|FE|DOMESTIC SHORTHAIR|M|20200624
711064|VMACS|Simon|Archimides|FE|PERSIAN|M|20080101
713658|VMACS|Cooper-Hastings|Buddy|K9|COCKER SPANIEL, AMERICAN|M|20120101
417646|VMACS|Kinney|Daisy|K9|BICHON FRISE|U|20100620
399800|VMACS|Ortiz|Ari|K9|CHIHUAHUA|M|20090501
713740|VMACS|Fowler|Sugar|K9|POMERANIAN|M|20160101
459502|VMACS|Johnson|Lola|K9|MIX|U|20080101
713671|VMACS|Klaassen|Theo|K9|YORKSHIRE TERRIER|M|20051001
713174|VMACS|Norcal Bully Breed Rescue|Pinot|K9|PIT BULL TERRIER|M|20191101
414033|VMACS|Klineberg|Gaia|K9|BERNESE MOUNTAIN DOG|F|20170915
713739|VMACS|Gerolaga|Giscelle|K9|MIX|U|20110505
713016|VMACS|Bohannon|Nivin|K9|WHIPPET|M|20190920
712645|VMACS|McKenzie|Tua|K9|LABRADOR RETRIEVER|M|20180701
453942|VMACS|Qvistgaard|Teddy|K9|POODLE, TOY|M|20101030
701405|VMACS|Thompson|Abby|K9|MINIATURE PINSCHER|U|20080120
707832|VMACS|Demarsico|Nali|K9|SIBERIAN HUSKY|U|20101019
712796|VMACS|Khoo|Cidence|FE|DOMESTIC MEDIUM HAIR|M|20100101
450235|VMACS|Gonsalves|Annie|K9|CHIHUAHUA|U|20110101
712201|VMACS|Endemann|Bentley|K9|BULLDOG, ENGLISH|M|20181102
713754|VMACS|Parker|Larry|FE|MIX|M|20050301
713939|VMACS|Moore Jimenez|Gracie|K9|SPRINGER SPANIEL, ENGLISH|U|20080731
713737|VMACS|Brazeel|Migos|K9|MIX|M|20160520
495506|VMACS|Corkill|Bella|K9|AUSTRALIAN SHEPHERD|U|20110113
474586|VMACS|Harrison|Murphy|K9|MIX|M|20151017
452711|VMACS|McCaffrey|Austin|FE|DOMESTIC SHORTHAIR|M|20100201
713358|VMACS|Olsen|Kitt|K9|SHIH TZU|U|20081002
397178|VMACS|Pryor|Jake|K9|GORDON SETTER|M|20080519
713795|VMACS|Franco|Douglas|K9|LHASA APSO|M|20170802
404200|VMACS|Barajas|Chin|K9|JAPANESE CHIN|M|20040101
421107|VMACS|Linebarger|Zoey|K9|MIX|U|20130101
702508|VMACS|Marshall|Kibby|FE|DOMESTIC SHORTHAIR|U|20110915
706046|VMACS|Anderson|Jordan|K9|PIT BULL TERRIER|M|20090203
713759|VMACS|Montilla|Bruno|K9|SCHNAUZER, MINIATURE|M|20120101
713575|VMACS|Cretcher|Jessie|K9|MIX|U|20070727
713796|VMACS|Lilly|Maui|FE|DOMESTIC SHORTHAIR|M|20180802
494994|VMACS|Corkill|Molly|K9|AUSTRALIAN SHEPHERD|U|20110128
713809|VMACS|Ocampo|Beast|FE|DOMESTIC MEDIUM HAIR|M|20140101
713704|VMACS|Ling|Cc|K9|YORKSHIRE TERRIER|U|20190607
713798|VMACS|Ross|Blue|K9|STAFFORDSHIRE TERRIER|U|20140101
706135|VMACS|Griffice|Thomas|K9|POODLE, MINIATURE|M|20090401
705026|VMACS|Gaspar|Dominic|K9|YORKSHIRE TERRIER|M|20111120
712413|VMACS|Frame|Jackson|K9|GOLDEN RETRIEVER|M|20190804
713819|VMACS|Capps|Maggie May|K9|MIX|U|20100101
713820|VMACS|Walters|G'Kar|K9|MIX|M|20100101
713846|VMACS|Soft Paws Rescue|Walter|K9|MIX|M|20190201
712894|VMACS|Augustin|Leo|FE|DOMESTIC SHORTHAIR|M|20110701
713850|VMACS|Sneesby|Baxter|K9|MIX|M|20191103
497506|VMACS|Edwards|Cara|K9|RHODESIAN RIDGEBACK|U|20140101
702147|VMACS|Robinson|Java|K9|LABRADOR RETRIEVER|U|20070801
712529|VMACS|Alexander|Winston|K9|JACK RUSSELL TERRIER|M|20120624
712583|VMACS|Nera|Pee Wee|K9|BULLDOG, FRENCH|M|20180711
717390|VMACS|Javanifard|Tucker|K9|MIX|M|20060101
712043|VMACS|Svare|Bodie|K9|MIX|M|20180101
479556|VMACS|Weivoda|Rye|FE|DOMESTIC MEDIUM HAIR|U|20150622
710895|VMACS|Mercado|Max|K9|WELSH CORGI, PEMBROKE|M|20190426
711203|VMACS|Reardon|Sadie|K9|PIT BULL TERRIER|U|20120101
713991|VMACS|Miller|Mittens|FE|DOMESTIC MEDIUM HAIR|U|20190805
713385|VMACS|Schneir|Pearl|K9|PAPILLON|U|20080101
713856|VMACS|Hardwick|Jeffery|FE|DOMESTIC LONGHAIR|M|20150101
444842|VMACS|Zindel|Phoebe|K9|MIX|U|20090101
713961|VMACS|Timmons|Sydney|K9|BULLDOG, ENGLISH|U|20191019
493475|VMACS|Keffler-Roa|Gryffin|K9|MIX|M|20030501
706594|VMACS|Nesamoney|Sunny|K9|GERMAN SHEPHERD DOG|M|20120101
713483|VMACS|Dufore|Penney|K9|DACHSHUND|U|20081024
713857|VMACS|Bertagnolli|Deacon|K9|LABRADOR RETRIEVER|M|20170101
706177|VMACS|Ebenhack|Goldie|K9|MIX|U|20110101
701558|VMACS|Escobedo|Chorte|K9|MIX|M|20100508
713896|VMACS|Davis|Poppy|K9|MIX|F|20200424
491575|VMACS|Coath|Gotti|K9|CHIHUAHUA|M|20050101
717226|VMACS|Leonis|Lina|FE|PERSIAN|U|20170214
708420|VMACS|Dudgeon|Quinn|K9|SCHNAUZER, MINIATURE|U|20081111
713903|VMACS|Policarpio|Lalu|K9|DOBERMAN PINSCHER|M|20120101
713893|VMACS|Martinez|Boeuf|K9|MIX|M|20100702
713895|VMACS|Chun|Quincy|K9|BULLDOG, FRENCH|F|20200321
479711|VMACS|Espera|Tobey|K9|CHIHUAHUA|M|20060225
713767|VMACS|Reckard|Felix|FE|DOMESTIC SHORTHAIR|M|20180801
714049|VMACS|Kelleher|Molly|K9|PUG|U|20090807
713909|VMACS|Hock|Schatze|K9|MIX|U|20100101
713918|VMACS|Brinegar|Sadie|K9|AUSTRALIAN CATTLE DOG|F|20200523
950165|VMACS|Raptor Stray Coha 8-10|Wtki 8/8/20|AV|KITE WHITE-TAILED|U|
704020|VMACS|Stein|Wagner|K9|BORDER COLLIE|M|20181212
459018|VMACS|McCaffrey|Leo|FE|DOMESTIC SHORTHAIR|M|20180214
449005|VMACS|Lobalbo|Sparx|K9|MIX|U|20080101
714030|VMACS|Negin|Jojo|FE|DOMESTIC SHORTHAIR|M|20190101
700399|VMACS|Tarbert|Micco|K9|PUG|M|20060813
713812|VMACS|Delbondio|Vito|K9|MIX|M|20160428
714029|VMACS|Harding|Barley|K9|MIX|M|20151028
711932|VMACS|Norcal Bully Breed Rescue|Dog 6/9/2020|K9|PIT BULL TERRIER|M|20180609
496083|VMACS|Petalas|Blue|K9|MIX|M|20080201
713886|VMACS|Kabeary|Milo|K9|GERMAN SHEPHERD DOG|M|20160801
711353|VMACS|Sanal|Kona|K9|MIX|M|20161125
714034|VMACS|Stackhouse|Bear|K9|STAFFORDSHIRE TERRIER|M|20090101
710452|VMACS|Pedegen|Gucci|K9|DOGO|M|20181228
711279|VMACS|Beilenson|Zookie|K9|CAVALIER KING CHARLES SPANIEL|M|20150101
458539|VMACS|Reilly|Beatrice|K9|CHIHUAHUA, LONG HAIRED|U|20130101
710439|VMACS|Reck|Carter|K9|MIX|M|20080101
713525|VMACS|Cunningham|Shelby|K9|GERMAN SHEPHERD DOG|F|20120101
710151|VMACS|Nikiassmith|Jasmine|K9|LABRADOR RETRIEVER|U|20060101
713629|VMACS|Carter|Voodoo|K9|BULLDOG, ENGLISH|F|20200102
839104|VMACS|Phillips|Dinamita|EQ|SPORTHORSE|F|20080101
950082|VMACS|Ha|Jade|LAGO|DWARF HOTOT|U|20130101
711014|VMACS|Wiggin|Woody|K9|BORDER COLLIE|M|20170424
713659|VMACS|Motter|Koda|FE|RAGDOLL|M|20070101
717657|VMACS|O'Brien|Brooklyn|K9|BOXER|U|20150331
713635|VMACS|Roberts|Devo|FE|DOMESTIC MEDIUM HAIR|M|20050729
948302|VMACS|Ludowise|Praust|LAGO|REX|M|20080101
467104|VMACS|Sanders|Ozzie|K9|MIX|M|20120101
839915|VMACS|Perez|Lakota|EQ|MIX|F|20100101
713707|VMACS|Rubio|Elle|K9|MIX|F|20191228
707957|VMACS|Turon|Noodle|K9|POODLE|M|20161020
460998|VMACS|Yu|Cookie|K9|COCKER SPANIEL, AMERICAN|U|20160101
949879|VMACS|Salvato|Macaroni|LAGO|RABBIT|M|20160101
712721|VMACS|Marxen|Copper|K9|MIX|M|20160501
417483|VMACS|Johl|Finley|K9|YORKSHIRE TERRIER|M|20180307
713834|VMACS|Likos|Tika|K9|PIT BULL TERRIER|U|20110924
446196|VMACS|Wheeler|Belly|K9|BOSTON TERRIER|U|20080813
711802|VMACS|Pope|Harley|K9|BEAGLE|M|20070101
710431|VMACS|Gordish|Darby|K9|PORTUGUESE WATER DOG|U|20050101
710453|VMACS|Stewart|Titan|K9|MIX|M|20110101
477577|VMACS|Stratos|Dexter|K9|BULLDOG|M|20080522
839943|VMACS|Branch|Quizzical 19 Filly|EQ|THOROUGHBRED|F|20190101
668098|VMACS|Bechtel Sereni|Sterling|EQ|HANOVERIAN|M|19950101
713900|VMACS|Campbell|Roxy|K9|JACK RUSSELL TERRIER|U|20060101
689070|VMACS|Herder|Remi (Bordeau Filly)|EQ|DUTCH WARMBLOOD|F|20140101
686033|VMACS|Bigby|Smokey|EQ|QUARTER HORSE|M|19970101
839809|VMACS|Fonsen|Bo|EQ|QUARTER HORSE]|M|20060101
697652|VMACS|Smith|Southern Intent|EQ|THOROUGHBRED|M|20090101
839890|VMACS|Williams|Go Big Or Go Home|EQ|THOROUGHBRED|M|20090101
839918|VMACS|Ivaves|River|EQ|AMERICAN PAINT HORSE|F|20070101
839925|VMACS|Watson|Abby|EQ|THOROUGHBRED|F|19960101
839457|VMACS|Smith|Fiji's 2020 Filly|EQ|ANDALUSIAN|F|20200605
699164|VMACS|Parino|Wim B|EQ|FRIESIAN|M|19990512
692690|VMACS|Vespi|Diva|EQ|QUARTER HORSE|F|20050101
699702|VMACS|Kolbe|Cloudy|EQ|HOLSTEINER|M|20070101
839682|VMACS|Cowley|Lantano|EQ|WELSH|M|20060101